{
  "name": "xwing",
  "id": "xwing",
  "title": "X-Wing Minis system for Foundry VTT (unofficial)",
  "description": "A system for playing X-Wing Miniatures in Foundry.",
  "version": "0.1.1",
  "minimumCoreVersion": "10",
  "compatibleCoreVersion": "10",
  "compatibility": {"minimum": 10, "verified": 10},
  "authors": [{"name":"mxzf"}],
  "esmodules": ["module/xwing.mjs"],
  "styles": ["css/xwing.css"],
  "scripts": [],
  "packs": [],
  "languages": [
    {
      "lang": "en",
      "name": "English",
      "path": "lang/en.json"
    }
  ],
  "gridDistance": 1,
  "gridUnits": "",
  "primaryTokenAttribute": "hull",
  "secondaryTokenAttribute": "shields",
  "url": "https://gitlab.com/mxzf/foundryvtt-xwing/",
  "manifest": "https://gitlab.com/mxzf/foundryvtt-xwing/-/releases/permalink/latest/downloads/system.json",
  "download": "https://gitlab.com/api/v4/projects/31443878/packages/generic/foundryvtt-xwing/latest/foundryvtt-xwing.zip",
  "license": "LICENSE.txt"
}
